c:\users\administrator\desktop\lua\lua\lua-5.1.4\lua-5.1.4\vs2013\staticlibrary\staticlibrary\debug\vc120.pdb
c:\users\administrator\desktop\lua\lua\lua-5.1.4\lua-5.1.4\vs2013\staticlibrary\staticlibrary\debug\vc120.idb
c:\users\administrator\desktop\lua\lua\lua-5.1.4\lua-5.1.4\vs2013\staticlibrary\staticlibrary\debug\linit.obj
c:\users\administrator\desktop\lua\lua\lua-5.1.4\lua-5.1.4\vs2013\staticlibrary\staticlibrary\debug\llex.obj
c:\users\administrator\desktop\lua\lua\lua-5.1.4\lua-5.1.4\vs2013\staticlibrary\staticlibrary\debug\lmathlib.obj
c:\users\administrator\desktop\lua\lua\lua-5.1.4\lua-5.1.4\vs2013\staticlibrary\staticlibrary\debug\lmem.obj
c:\users\administrator\desktop\lua\lua\lua-5.1.4\lua-5.1.4\vs2013\staticlibrary\staticlibrary\debug\lopcodes.obj
c:\users\administrator\desktop\lua\lua\lua-5.1.4\lua-5.1.4\vs2013\staticlibrary\staticlibrary\debug\lparser.obj
c:\users\administrator\desktop\lua\lua\lua-5.1.4\lua-5.1.4\vs2013\staticlibrary\staticlibrary\debug\lstate.obj
c:\users\administrator\desktop\lua\lua\lua-5.1.4\lua-5.1.4\vs2013\staticlibrary\staticlibrary\debug\lstring.obj
c:\users\administrator\desktop\lua\lua\lua-5.1.4\lua-5.1.4\vs2013\staticlibrary\staticlibrary\debug\ltable.obj
c:\users\administrator\desktop\lua\lua\lua-5.1.4\lua-5.1.4\vs2013\staticlibrary\staticlibrary\debug\ltablib.obj
c:\users\administrator\desktop\lua\lua\lua-5.1.4\lua-5.1.4\vs2013\staticlibrary\staticlibrary\debug\ltm.obj
c:\users\administrator\desktop\lua\lua\lua-5.1.4\lua-5.1.4\vs2013\staticlibrary\staticlibrary\debug\lundump.obj
c:\users\administrator\desktop\lua\lua\lua-5.1.4\lua-5.1.4\vs2013\staticlibrary\staticlibrary\debug\lzio.obj
c:\users\administrator\desktop\lua\lua\lua-5.1.4\lua-5.1.4\vs2013\staticlibrary\staticlibrary\debug\print.obj
c:\users\administrator\desktop\lua\lua\lua-5.1.4\lua-5.1.4\vs2013\staticlibrary\staticlibrary\debug\lapi.obj
c:\users\administrator\desktop\lua\lua\lua-5.1.4\lua-5.1.4\vs2013\staticlibrary\staticlibrary\debug\lbaselib.obj
c:\users\administrator\desktop\lua\lua\lua-5.1.4\lua-5.1.4\vs2013\staticlibrary\staticlibrary\debug\lcode.obj
c:\users\administrator\desktop\lua\lua\lua-5.1.4\lua-5.1.4\vs2013\staticlibrary\staticlibrary\debug\ldblib.obj
c:\users\administrator\desktop\lua\lua\lua-5.1.4\lua-5.1.4\vs2013\staticlibrary\staticlibrary\debug\ldebug.obj
c:\users\administrator\desktop\lua\lua\lua-5.1.4\lua-5.1.4\vs2013\staticlibrary\staticlibrary\debug\ldo.obj
c:\users\administrator\desktop\lua\lua\lua-5.1.4\lua-5.1.4\vs2013\staticlibrary\staticlibrary\debug\ldump.obj
c:\users\administrator\desktop\lua\lua\lua-5.1.4\lua-5.1.4\vs2013\staticlibrary\staticlibrary\debug\lfunc.obj
c:\users\administrator\desktop\lua\lua\lua-5.1.4\lua-5.1.4\vs2013\staticlibrary\staticlibrary\debug\lgc.obj
c:\users\administrator\desktop\lua\lua\lua-5.1.4\lua-5.1.4\vs2013\staticlibrary\staticlibrary\debug\liolib.obj
c:\users\administrator\desktop\lua\lua\lua-5.1.4\lua-5.1.4\vs2013\staticlibrary\staticlibrary\debug\loadlib.obj
c:\users\administrator\desktop\lua\lua\lua-5.1.4\lua-5.1.4\vs2013\staticlibrary\staticlibrary\debug\lobject.obj
c:\users\administrator\desktop\lua\lua\lua-5.1.4\lua-5.1.4\vs2013\staticlibrary\staticlibrary\debug\loslib.obj
c:\users\administrator\desktop\lua\lua\lua-5.1.4\lua-5.1.4\vs2013\staticlibrary\staticlibrary\debug\lstrlib.obj
c:\users\administrator\desktop\lua\lua\lua-5.1.4\lua-5.1.4\vs2013\staticlibrary\staticlibrary\debug\lvm.obj
c:\users\administrator\desktop\lua\lua\lua-5.1.4\lua-5.1.4\vs2013\staticlibrary\staticlibrary\debug\lauxlib.obj
c:\users\administrator\desktop\lua\lua\lua-5.1.4\lua-5.1.4\vs2013\staticlibrary\debug\lua5.1.4.lib
c:\users\administrator\downloads\lua develope package\lua develope package\lua-5.1.4\lua-5.1.4\vs2013\staticlibrary\staticlibrary\debug\lapi.obj
c:\users\administrator\downloads\lua develope package\lua develope package\lua-5.1.4\lua-5.1.4\vs2013\staticlibrary\staticlibrary\debug\lauxlib.obj
c:\users\administrator\downloads\lua develope package\lua develope package\lua-5.1.4\lua-5.1.4\vs2013\staticlibrary\staticlibrary\debug\lbaselib.obj
c:\users\administrator\downloads\lua develope package\lua develope package\lua-5.1.4\lua-5.1.4\vs2013\staticlibrary\staticlibrary\debug\lcode.obj
c:\users\administrator\downloads\lua develope package\lua develope package\lua-5.1.4\lua-5.1.4\vs2013\staticlibrary\staticlibrary\debug\ldblib.obj
c:\users\administrator\downloads\lua develope package\lua develope package\lua-5.1.4\lua-5.1.4\vs2013\staticlibrary\staticlibrary\debug\ldebug.obj
c:\users\administrator\downloads\lua develope package\lua develope package\lua-5.1.4\lua-5.1.4\vs2013\staticlibrary\staticlibrary\debug\ldo.obj
c:\users\administrator\downloads\lua develope package\lua develope package\lua-5.1.4\lua-5.1.4\vs2013\staticlibrary\staticlibrary\debug\ldump.obj
c:\users\administrator\downloads\lua develope package\lua develope package\lua-5.1.4\lua-5.1.4\vs2013\staticlibrary\staticlibrary\debug\lfunc.obj
c:\users\administrator\downloads\lua develope package\lua develope package\lua-5.1.4\lua-5.1.4\vs2013\staticlibrary\staticlibrary\debug\lgc.obj
c:\users\administrator\downloads\lua develope package\lua develope package\lua-5.1.4\lua-5.1.4\vs2013\staticlibrary\staticlibrary\debug\linit.obj
c:\users\administrator\downloads\lua develope package\lua develope package\lua-5.1.4\lua-5.1.4\vs2013\staticlibrary\staticlibrary\debug\liolib.obj
c:\users\administrator\downloads\lua develope package\lua develope package\lua-5.1.4\lua-5.1.4\vs2013\staticlibrary\staticlibrary\debug\llex.obj
c:\users\administrator\downloads\lua develope package\lua develope package\lua-5.1.4\lua-5.1.4\vs2013\staticlibrary\staticlibrary\debug\lmathlib.obj
c:\users\administrator\downloads\lua develope package\lua develope package\lua-5.1.4\lua-5.1.4\vs2013\staticlibrary\staticlibrary\debug\lmem.obj
c:\users\administrator\downloads\lua develope package\lua develope package\lua-5.1.4\lua-5.1.4\vs2013\staticlibrary\staticlibrary\debug\loadlib.obj
c:\users\administrator\downloads\lua develope package\lua develope package\lua-5.1.4\lua-5.1.4\vs2013\staticlibrary\staticlibrary\debug\lobject.obj
c:\users\administrator\downloads\lua develope package\lua develope package\lua-5.1.4\lua-5.1.4\vs2013\staticlibrary\staticlibrary\debug\lopcodes.obj
c:\users\administrator\downloads\lua develope package\lua develope package\lua-5.1.4\lua-5.1.4\vs2013\staticlibrary\staticlibrary\debug\loslib.obj
c:\users\administrator\downloads\lua develope package\lua develope package\lua-5.1.4\lua-5.1.4\vs2013\staticlibrary\staticlibrary\debug\lparser.obj
c:\users\administrator\downloads\lua develope package\lua develope package\lua-5.1.4\lua-5.1.4\vs2013\staticlibrary\staticlibrary\debug\lstate.obj
c:\users\administrator\downloads\lua develope package\lua develope package\lua-5.1.4\lua-5.1.4\vs2013\staticlibrary\staticlibrary\debug\lstring.obj
c:\users\administrator\downloads\lua develope package\lua develope package\lua-5.1.4\lua-5.1.4\vs2013\staticlibrary\staticlibrary\debug\lstrlib.obj
c:\users\administrator\downloads\lua develope package\lua develope package\lua-5.1.4\lua-5.1.4\vs2013\staticlibrary\staticlibrary\debug\ltable.obj
c:\users\administrator\downloads\lua develope package\lua develope package\lua-5.1.4\lua-5.1.4\vs2013\staticlibrary\staticlibrary\debug\ltablib.obj
c:\users\administrator\downloads\lua develope package\lua develope package\lua-5.1.4\lua-5.1.4\vs2013\staticlibrary\staticlibrary\debug\ltm.obj
c:\users\administrator\downloads\lua develope package\lua develope package\lua-5.1.4\lua-5.1.4\vs2013\staticlibrary\staticlibrary\debug\lundump.obj
c:\users\administrator\downloads\lua develope package\lua develope package\lua-5.1.4\lua-5.1.4\vs2013\staticlibrary\staticlibrary\debug\lvm.obj
c:\users\administrator\downloads\lua develope package\lua develope package\lua-5.1.4\lua-5.1.4\vs2013\staticlibrary\staticlibrary\debug\lzio.obj
c:\users\administrator\downloads\lua develope package\lua develope package\lua-5.1.4\lua-5.1.4\vs2013\staticlibrary\staticlibrary\debug\print.obj
c:\users\administrator\downloads\lua develope package\lua develope package\lua-5.1.4\lua-5.1.4\vs2013\staticlibrary\staticlibrary\debug\vc120.idb
c:\users\administrator\downloads\lua develope package\lua develope package\lua-5.1.4\lua-5.1.4\vs2013\staticlibrary\staticlibrary\debug\vc120.pdb
c:\users\administrator\downloads\lua develope package\lua develope package\lua-5.1.4\lua-5.1.4\vs2013\staticlibrary\debug\lua5.1.4.lib
c:\users\administrator\downloads\lua develope package\lua develope package\lua-5.1.4\lua-5.1.4\vs2013\staticlibrary\staticlibrary\debug\staticlibrary.tlog\cl.command.1.tlog
c:\users\administrator\downloads\lua develope package\lua develope package\lua-5.1.4\lua-5.1.4\vs2013\staticlibrary\staticlibrary\debug\staticlibrary.tlog\cl.read.1.tlog
c:\users\administrator\downloads\lua develope package\lua develope package\lua-5.1.4\lua-5.1.4\vs2013\staticlibrary\staticlibrary\debug\staticlibrary.tlog\cl.write.1.tlog
c:\users\administrator\downloads\lua develope package\lua develope package\lua-5.1.4\lua-5.1.4\vs2013\staticlibrary\staticlibrary\debug\staticlibrary.tlog\lib-link.read.1.tlog
c:\users\administrator\downloads\lua develope package\lua develope package\lua-5.1.4\lua-5.1.4\vs2013\staticlibrary\staticlibrary\debug\staticlibrary.tlog\lib-link.write.1.tlog
c:\users\administrator\downloads\lua develope package\lua develope package\lua-5.1.4\lua-5.1.4\vs2013\staticlibrary\staticlibrary\debug\staticlibrary.tlog\lib.command.1.tlog
